{
  "type": "service_account",
  "project_id": "olive-living",
  "private_key_id": "983c005c8ba51f6d2e88c443b11b1c2e81fdcbdf",
  "private_key": "-----BEGIN PRIVATE KEY-----\nMIIEvQIBADANBgkqhkiG9w0BAQEFAASCBKcwggSjAgEAAoIBAQC+5he1wgABrYI0\nIZtUWsOMSe3sbzZqVlCYe+to3gw0OX0qGKRczMDf77f01Y3tS4ZqAF0OFrDpF5w0\njspdzJWGi1Y/lVAu+x8R4ChiMyKwK71Xq3IUmo+kGm5QFAsIJyC5/A5aOKl/ExBv\n4SRXB8kBahTKRfHbNRn1BagdmqUp1Mid165c+eFmyb0PLz8ILDcJlnqQ/4FJILel\n/rlfSXAkcGGXZRKnBDP2Y/WJhYFlyUh8ewHAIggOFsnBImwniZa1J8MUpenISmXV\nxm7jmU8an8RDZs38qXIUfCIY0K8UDtu2PGgrtsJYWm4Tdxz5AkGVs8IbF044b+Q/\nyVI33HFHAgMBAAECggEAUQljAkTO9OdfcNrdUeNPxKNzjR0ux9hJUVm1dqhgHOFU\nqUSZrU08CTP9bsEjBRs8/Y2W8w6d3e0oYcVF0aixxtIqdEZhqffvWgrCieE0Nf3z\nXB6LCIUOOfcAYh0IC9d0VI9T1mfcR/XjUeMMpqdG5ENQfQdRIqF5meJjWeHWgBk4\nL+EVC6E43dPURlKwSmAjiGOE/QaGbax0zQCEVD0V1NDk3A9xLEy+QqkKqHWmt3iy\nWcqD9xUbCa2dZXLFfGN/9L++nKKpOuMjLy3lstg219VgicAwuyCLDVe8qSkmB0es\nSsFBYq3xVk5VIN5rKfoO+lvuPycisFUsNhsXS+PqbQKBgQDugKjuyLBj+piFMFTH\nUgnPaRwTCVYAHcTyWojhexftLBTWpP4w3Rh4wnLCP0wh38wazE9kGJAqDBTXOi4A\nlNj6IR0vRDo9rS9XtsFAGX4I2HYNb7J91Q9UwbngZnGJ96l1eTcGcNjdyKVldPmv\nZAO/I30T1H0DE4b4i2JdmtCnIwKBgQDM52GsDQy2Nhx3llo05XEWBk4okN0lUJAH\nOMcUK5rp3IwrFklLwBps7HWfB55ImIprVNo7eqoEMDQ+ddHDFfDJaEs8Ry+zUwRv\ntV0nT41zAbAsORQ5YJBDJzL/ZM+gaWeNS9hCW1ppfSxPAbxtnqnMOjGPGDVElWPQ\nypSXzcXBjQKBgAc4XeTcrnpYW8WscOSX1zQwOmlZHwFh5VRw6TPqRg8oBnl5BTj1\neIgvWsoGoIdl/wfQp5agJ70eIINjf4EFAIyR9BA6QIkddRFytub53pbl9qzxdLXa\nfVxTgQ0KDOXgWYD06nWHdQlBycAIioaEwJhIusCe7inprWxYy+GJjkeBAoGATUKF\nYoE9JMs8ap8HfmBxBnP0LnmI2RQKap6u+d0DOWDOfUSW+HgDvsReCUuvFAJoVtYU\nv06eIpwmZtK3+A4iz16C18SjqMMJrjE9YaAuXonpapNPG99cJeX25bOWUg7MW8uY\nTFTzv0jSVyv5Z3/m2DmtDB59n1GQ5F4uLxsIkNUCgYEAqgR1n/XPwC+FONsCYwKw\n4K7oCHLhd1nPI/bLqHLCqpbNE3cYhM3kIpgtaR34YUkgcgDBHCrmMnpD1rg3RaxI\naywDaiWjneGm0/WXHRY7us5NlbZPVgpLrcMl9iIvizo4p5oaUVX57GZBDwFeW2km\nZeVL63pAQnsu4wphskGnwy8=\n-----END PRIVATE KEY-----\n",
  "client_email": "google-calendar@olive-living.iam.gserviceaccount.com",
  "client_id": "106051700938645354319",
  "auth_uri": "https://accounts.google.com/o/oauth2/auth",
  "token_uri": "https://oauth2.googleapis.com/token",
  "auth_provider_x509_cert_url": "https://www.googleapis.com/oauth2/v1/certs",
  "client_x509_cert_url": "https://www.googleapis.com/robot/v1/metadata/x509/google-calendar%40olive-living.iam.gserviceaccount.com"
}
